Content-Type: text/plain; charset="utf-8"
MIME-Version: 1.0
Content-Transfer-Encoding: 8bit
Subject: 
 =?utf-8?b?0KHQsdGA0L7RgSDQv9Cw0YDQvtC70Y8g0L3QsCAxMjcuMC4wLjE6ODAwMA==?=
From: webmaster@localhost
To: panfilv-dima@yandex.ru
Date: Mon, 27 Aug 2018 15:12:46 -0000
Message-ID: 
 =?utf-8?b?PDE1MzUzODI3NjY2OS4xNjY0LjEwNTcwMDk0MTA1MzkyMTQ0MTQ3QNCU0LzQuNGC?=
 =?utf-8?b?0YDQuNC5LdCf0Jo+?=


Вы получили это письмо, потому что вы (или кто-то другой) запросили восстановление пароля от учётной записи на сайте 127.0.0.1:8000, которая связана с этим адресом электронной почты.

Пожалуйста, перейдите на эту страницу и введите новый пароль:

http://127.0.0.1:8000/accounts/reset/MQ/4z3-adc5437bf90d46f18e7f/

Ваше имя пользователя (на случай, если вы его забыли): Jafer

Спасибо, что используете наш сайт!

Команда сайта 127.0.0.1:8000



-------------------------------------------------------------------------------
